{
  "tipoTreno": "PG",
  "orientamento": null,
  "codiceCliente": 2,
  "fermateSoppresse": [],
  "dataPartenza": null,
  "fermate": [
    {
      "orientamento": null,
      "kcNumTreno": null,
      "stazione": "VENEZIA SANTA LUCIA",
      "id": "S02593",
      "listaCorrispondenze": null,
      "programmata": 1620280620000,
      "programmataZero": null,
      "effettiva": 1620281640000,
      "ritardo": 17,
      "partenzaTeoricaZero": 1620280620000,
      "arrivoTeoricoZero": null,
      "partenza_teorica": 1620280620000,
      "arrivo_teorico": null,
      "isNextChanged": false,
      "partenzaReale": 1620281640000,
      "arrivoReale": null,
      "ritardoPartenza": 17,
      "ritardoArrivo": 0,
      "progressivo": 1,
      "binarioEffettivoArrivoCodice": "0",
      "binarioEffettivoArrivoTipo": null,
      "binarioEffettivoArrivoDescrizione": null,
      "binarioProgrammatoArrivoCodice": "0",
      "binarioProgrammatoArrivoDescrizione": null,
      "binarioEffettivoPartenzaCodice": "956",
      "binarioEffettivoPartenzaTipo": "0",
      "binarioEffettivoPartenzaDescrizione": "17",
      "binarioProgrammatoPartenzaCodice": "0",
      "binarioProgrammatoPartenzaDescrizione": "17",
      "tipoFermata": "P",
      "visualizzaPrevista": true,
      "nextChanged": false,
      "nextTrattaType": 0,
      "actualFermataType": 1,
      "materiale_label": null
    },
    {
      "orientamento": null,
      "kcNumTreno": null,
      "stazione": "VENEZIA MESTRE",
      "id": "S02589",
      "listaCorrispondenze": null,
      "programmata": 1620281220000,
      "programmataZero": null,
      "effettiva": 1620282180000,
      "ritardo": 16,
      "partenzaTeoricaZero": 1620281340000,
      "arrivoTeoricoZero": 1620281220000,
      "partenza_teorica": 1620281340000,
      "arrivo_teorico": 1620281220000,
      "isNextChanged": false,
      "partenzaReale": 1620282270000,
      "arrivoReale": 1620282180000,
      "ritardoPartenza": 16,
      "ritardoArrivo": 16,
      "progressivo": 4,
      "binarioEffettivoArrivoCodice": "1864",
      "binarioEffettivoArrivoTipo": "0",
      "binarioEffettivoArrivoDescrizione": "12",
      "binarioProgrammatoArrivoCodice": "0",
      "binarioProgrammatoArrivoDescrizione": "12",
      "binarioEffettivoPartenzaCodice": "1997",
      "binarioEffettivoPartenzaTipo": "0",
      "binarioEffettivoPartenzaDescrizione": "12",
      "binarioProgrammatoPartenzaCodice": "0",
      "binarioProgrammatoPartenzaDescrizione": "12",
      "tipoFermata": "F",
      "visualizzaPrevista": true,
      "nextChanged": false,
      "nextTrattaType": 0,
      "actualFermataType": 1,
      "materiale_label": null
    },
    {
      "orientamento": null,
      "kcNumTreno": null,
      "stazione": "SPINEA",
      "id": "S02516",
      "listaCorrispondenze": null,
      "programmata": 1620281700000,
      "programmataZero": null,
      "effettiva": 1620282570000,
      "ritardo": 15,
      "partenzaTeoricaZero": 1620281760000,
      "arrivoTeoricoZero": 1620281700000,
      "partenza_teorica": 1620281760000,
      "arrivo_teorico": 1620281700000,
      "isNextChanged": false,
      "partenzaReale": 1620282570000,
      "arrivoReale": 1620282570000,
      "ritardoPartenza": 14,
      "ritardoArrivo": 15,
      "progressivo": 6,
      "binarioEffettivoArrivoCodice": "4488",
      "binarioEffettivoArrivoTipo": "0",
      "binarioEffettivoArrivoDescrizione": "1",
      "binarioProgrammatoArrivoCodice": "0",
      "binarioProgrammatoArrivoDescrizione": "1",
      "binarioEffettivoPartenzaCodice": "770",
      "binarioEffettivoPartenzaTipo": "0",
      "binarioEffettivoPartenzaDescrizione": "1",
      "binarioProgrammatoPartenzaCodice": "0",
      "binarioProgrammatoPartenzaDescrizione": "1",
      "tipoFermata": "F",
      "visualizzaPrevista": true,
      "nextChanged": false,
      "nextTrattaType": 0,
      "actualFermataType": 1,
      "materiale_label": null
    },
    {
      "orientamento": null,
      "kcNumTreno": null,
      "stazione": "MAERNE DI MARTELLAGO",
      "id": "S02512",
      "listaCorrispondenze": null,
      "programmata": 1620281940000,
      "programmataZero": null,
      "effettiva": 1620282810000,
      "ritardo": 15,
      "partenzaTeoricaZero": 1620282000000,
      "arrivoTeoricoZero": 1620281940000,
      "partenza_teorica": 1620282000000,
      "arrivo_teorico": 1620281940000,
      "isNextChanged": false,
      "partenzaReale": 1620283140000,
      "arrivoReale": 1620282810000,
      "ritardoPartenza": 19,
      "ritardoArrivo": 15,
      "progressivo": 8,
      "binarioEffettivoArrivoCodice": "397",
      "binarioEffettivoArrivoTipo": "0",
      "binarioEffettivoArrivoDescrizione": "1",
      "binarioProgrammatoArrivoCodice": "0",
      "binarioProgrammatoArrivoDescrizione": "1",
      "binarioEffettivoPartenzaCodice": "409",
      "binarioEffettivoPartenzaTipo": "0",
      "binarioEffettivoPartenzaDescrizione": "1",
      "binarioProgrammatoPartenzaCodice": "0",
      "binarioProgrammatoPartenzaDescrizione": "1",
      "tipoFermata": "F",
      "visualizzaPrevista": true,
      "nextChanged": false,
      "nextTrattaType": 0,
      "actualFermataType": 1,
      "materiale_label": null
    },
    {
      "orientamento": null,
      "kcNumTreno": null,
      "stazione": "SALZANO ROBEGANO",
      "id": "S02511",
      "listaCorrispondenze": null,
      "programmata": 1620282180000,
      "programmataZero": null,
      "effettiva": null,
      "ritardo": 0,
      "partenzaTeoricaZero": 1620282240000,
      "arrivoTeoricoZero": 1620282180000,
      "partenza_teorica": 1620282240000,
      "arrivo_teorico": 1620282180000,
      "isNextChanged": false,
      "partenzaReale": null,
      "arrivoReale": null,
      "ritardoPartenza": 0,
      "ritardoArrivo": 0,
      "progressivo": 9,
      "binarioEffettivoArrivoCodice": "4555",
      "binarioEffettivoArrivoTipo": "0",
      "binarioEffettivoArrivoDescrizione": "1",
      "binarioProgrammatoArrivoCodice": "0",
      "binarioProgrammatoArrivoDescrizione": "1",
      "binarioEffettivoPartenzaCodice": "0",
      "binarioEffettivoPartenzaTipo": null,
      "binarioEffettivoPartenzaDescrizione": null,
      "binarioProgrammatoPartenzaCodice": "0",
      "binarioProgrammatoPartenzaDescrizione": "1",
      "tipoFermata": "F",
      "visualizzaPrevista": true,
      "nextChanged": false,
      "nextTrattaType": 0,
      "actualFermataType": 1,
      "materiale_label": null
    },
    {
      "orientamento": null,
      "kcNumTreno": null,
      "stazione": "NOALE SCORZE`",
      "id": "S02510",
      "listaCorrispondenze": null,
      "programmata": 1620282480000,
      "programmataZero": null,
      "effettiva": 1620283530000,
      "ritardo": 18,
      "partenzaTeoricaZero": 1620282540000,
      "arrivoTeoricoZero": 1620282480000,
      "partenza_teorica": 1620282540000,
      "arrivo_teorico": 1620282480000,
      "isNextChanged": false,
      "partenzaReale": 1620283710000,
      "arrivoReale": 1620283530000,
      "ritardoPartenza": 20,
      "ritardoArrivo": 18,
      "progressivo": 10,
      "binarioEffettivoArrivoCodice": "2617",
      "binarioEffettivoArrivoTipo": "0",
      "binarioEffettivoArrivoDescrizione": "2",
      "binarioProgrammatoArrivoCodice": "0",
      "binarioProgrammatoArrivoDescrizione": "2",
      "binarioEffettivoPartenzaCodice": "2628",
      "binarioEffettivoPartenzaTipo": "0",
      "binarioEffettivoPartenzaDescrizione": "2",
      "binarioProgrammatoPartenzaCodice": "0",
      "binarioProgrammatoPartenzaDescrizione": "2",
      "tipoFermata": "F",
      "visualizzaPrevista": true,
      "nextChanged": false,
      "nextTrattaType": 0,
      "actualFermataType": 1,
      "materiale_label": null
    },
    {
      "orientamento": null,
      "kcNumTreno": null,
      "stazione": "PIOMBINO DESE",
      "id": "S02509",
      "listaCorrispondenze": null,
      "programmata": 1620282900000,
      "programmataZero": null,
      "effettiva": 1620284100000,
      "ritardo": 20,
      "partenzaTeoricaZero": 1620282960000,
      "arrivoTeoricoZero": 1620282900000,
      "partenza_teorica": 1620282960000,
      "arrivo_teorico": 1620282900000,
      "isNextChanged": false,
      "partenzaReale": 1620284220000,
      "arrivoReale": 1620284100000,
      "ritardoPartenza": 21,
      "ritardoArrivo": 20,
      "progressivo": 12,
      "binarioEffettivoArrivoCodice": "600",
      "binarioEffettivoArrivoTipo": "0",
      "binarioEffettivoArrivoDescrizione": "1",
      "binarioProgrammatoArrivoCodice": "0",
      "binarioProgrammatoArrivoDescrizione": "1",
      "binarioEffettivoPartenzaCodice": "607",
      "binarioEffettivoPartenzaTipo": "0",
      "binarioEffettivoPartenzaDescrizione": "1",
      "binarioProgrammatoPartenzaCodice": "0",
      "binarioProgrammatoPartenzaDescrizione": "1",
      "tipoFermata": "F",
      "visualizzaPrevista": true,
      "nextChanged": false,
      "nextTrattaType": 0,
      "actualFermataType": 1,
      "materiale_label": null
    },
    {
      "orientamento": null,
      "kcNumTreno": null,
      "stazione": "CASTELFRANCO VENETO",
      "id": "S02537",
      "listaCorrispondenze": null,
      "programmata": 1620283440000,
      "programmataZero": null,
      "effettiva": 1620284670000,
      "ritardo": 21,
      "partenzaTeoricaZero": 1620283560000,
      "arrivoTeoricoZero": 1620283440000,
      "partenza_teorica": 1620283560000,
      "arrivo_teorico": 1620283440000,
      "isNextChanged": false,
      "partenzaReale": 1620284790000,
      "arrivoReale": 1620284670000,
      "ritardoPartenza": 21,
      "ritardoArrivo": 21,
      "progressivo": 14,
      "binarioEffettivoArrivoCodice": "440",
      "binarioEffettivoArrivoTipo": "0",
      "binarioEffettivoArrivoDescrizione": "4",
      "binarioProgrammatoArrivoCodice": "0",
      "binarioProgrammatoArrivoDescrizione": "4",
      "binarioEffettivoPartenzaCodice": "570",
      "binarioEffettivoPartenzaTipo": "0",
      "binarioEffettivoPartenzaDescrizione": "4",
      "binarioProgrammatoPartenzaCodice": "0",
      "binarioProgrammatoPartenzaDescrizione": "4",
      "tipoFermata": "F",
      "visualizzaPrevista": true,
      "nextChanged": false,
      "nextTrattaType": 0,
      "actualFermataType": 1,
      "materiale_label": null
    },
    {
      "orientamento": null,
      "kcNumTreno": null,
      "stazione": "CASTELLO DI GODEGO",
      "id": "S02507",
      "listaCorrispondenze": null,
      "programmata": 1620284040000,
      "programmataZero": null,
      "effettiva": 1620285150000,
      "ritardo": 19,
      "partenzaTeoricaZero": 1620284100000,
      "arrivoTeoricoZero": 1620284040000,
      "partenza_teorica": 1620284100000,
      "arrivo_teorico": 1620284040000,
      "isNextChanged": false,
      "partenzaReale": 1620285270000,
      "arrivoReale": 1620285150000,
      "ritardoPartenza": 20,
      "ritardoArrivo": 19,
      "progressivo": 15,
      "binarioEffettivoArrivoCodice": "754",
      "binarioEffettivoArrivoTipo": "0",
      "binarioEffettivoArrivoDescrizione": "2",
      "binarioProgrammatoArrivoCodice": "0",
      "binarioProgrammatoArrivoDescrizione": "2",
      "binarioEffettivoPartenzaCodice": "762",
      "binarioEffettivoPartenzaTipo": "0",
      "binarioEffettivoPartenzaDescrizione": "2",
      "binarioProgrammatoPartenzaCodice": "0",
      "binarioProgrammatoPartenzaDescrizione": "2",
      "tipoFermata": "F",
      "visualizzaPrevista": true,
      "nextChanged": false,
      "nextTrattaType": 1,
      "actualFermataType": 1,
      "materiale_label": null
    },
    {
      "orientamento": null,
      "kcNumTreno": null,
      "stazione": "CASSOLA",
      "id": "S02506",
      "listaCorrispondenze": null,
      "programmata": 1620284400000,
      "programmataZero": null,
      "effettiva": null,
      "ritardo": 0,
      "partenzaTeoricaZero": 1620284460000,
      "arrivoTeoricoZero": 1620284400000,
      "partenza_teorica": 1620284460000,
      "arrivo_teorico": 1620284400000,
      "isNextChanged": false,
      "partenzaReale": null,
      "arrivoReale": null,
      "ritardoPartenza": 0,
      "ritardoArrivo": 0,
      "progressivo": 16,
      "binarioEffettivoArrivoCodice": "4531",
      "binarioEffettivoArrivoTipo": "0",
      "binarioEffettivoArrivoDescrizione": "1",
      "binarioProgrammatoArrivoCodice": "0",
      "binarioProgrammatoArrivoDescrizione": "1",
      "binarioEffettivoPartenzaCodice": "0",
      "binarioEffettivoPartenzaTipo": null,
      "binarioEffettivoPartenzaDescrizione": null,
      "binarioProgrammatoPartenzaCodice": "0",
      "binarioProgrammatoPartenzaDescrizione": "1",
      "tipoFermata": "F",
      "visualizzaPrevista": true,
      "nextChanged": false,
      "nextTrattaType": 2,
      "actualFermataType": 0,
      "materiale_label": null
    },
    {
      "orientamento": null,
      "kcNumTreno": null,
      "stazione": "BASSANO DEL GRAPPA",
      "id": "S02520",
      "listaCorrispondenze": null,
      "programmata": 1620285060000,
      "programmataZero": null,
      "effettiva": null,
      "ritardo": 0,
      "partenzaTeoricaZero": null,
      "arrivoTeoricoZero": 1620285060000,
      "partenza_teorica": null,
      "arrivo_teorico": 1620285060000,
      "isNextChanged": false,
      "partenzaReale": null,
      "arrivoReale": null,
      "ritardoPartenza": 0,
      "ritardoArrivo": 0,
      "progressivo": 17,
      "binarioEffettivoArrivoCodice": "0",
      "binarioEffettivoArrivoTipo": null,
      "binarioEffettivoArrivoDescrizione": null,
      "binarioProgrammatoArrivoCodice": "0",
      "binarioProgrammatoArrivoDescrizione": "5",
      "binarioEffettivoPartenzaCodice": "0",
      "binarioEffettivoPartenzaTipo": null,
      "binarioEffettivoPartenzaDescrizione": null,
      "binarioProgrammatoPartenzaCodice": "0",
      "binarioProgrammatoPartenzaDescrizione": null,
      "tipoFermata": "A",
      "visualizzaPrevista": true,
      "nextChanged": false,
      "nextTrattaType": 2,
      "actualFermataType": 0,
      "materiale_label": null
    }
  ],
  "anormalita": null,
  "provvedimenti": null,
  "segnalazioni": null,
  "oraUltimoRilevamento": 1620285270000,
  "stazioneUltimoRilevamento": "CASTELLO DI GODEGO",
  "idDestinazione": "S02520",
  "idOrigine": "S02593",
  "cambiNumero": [],
  "hasProvvedimenti": false,
  "descOrientamento": [
    "--",
    "--",
    "--",
    "--",
    "--",
    "--",
    "--",
    "--",
    "--"
  ],
  "compOraUltimoRilevamento": "09:14",
  "motivoRitardoPrevalente": null,
  "descrizioneVCO": "",
  "materiale_label": null,
  "numeroTreno": 16310,
  "categoria": "REG",
  "categoriaDescrizione": null,
  "origine": "VENEZIA SANTA LUCIA",
  "codOrigine": null,
  "destinazione": "BASSANO DEL GRAPPA",
  "codDestinazione": null,
  "origineEstera": null,
  "destinazioneEstera": null,
  "oraPartenzaEstera": null,
  "oraArrivoEstera": null,
  "tratta": 0,
  "regione": 0,
  "origineZero": "VENEZIA SANTA LUCIA",
  "destinazioneZero": "BASSANO DEL GRAPPA",
  "orarioPartenzaZero": null,
  "orarioArrivoZero": null,
  "circolante": true,
  "binarioEffettivoArrivoCodice": null,
  "binarioEffettivoArrivoDescrizione": null,
  "binarioEffettivoArrivoTipo": null,
  "binarioProgrammatoArrivoCodice": null,
  "binarioProgrammatoArrivoDescrizione": null,
  "binarioEffettivoPartenzaCodice": null,
  "binarioEffettivoPartenzaDescrizione": null,
  "binarioEffettivoPartenzaTipo": null,
  "binarioProgrammatoPartenzaCodice": null,
  "binarioProgrammatoPartenzaDescrizione": null,
  "subTitle": "",
  "esisteCorsaZero": "0",
  "inStazione": false,
  "haCambiNumero": false,
  "nonPartito": false,
  "provvedimento": 0,
  "riprogrammazione": null,
  "orarioPartenza": 1620280620000,
  "orarioArrivo": 1620285060000,
  "stazionePartenza": null,
  "stazioneArrivo": null,
  "statoTreno": null,
  "corrispondenze": null,
  "servizi": [],
  "ritardo": 20,
  "tipoProdotto": "0",
  "compOrarioPartenzaZeroEffettivo": "07:57",
  "compOrarioArrivoZeroEffettivo": null,
  "compOrarioPartenzaZero": "07:57",
  "compOrarioArrivoZero": null,
  "compOrarioArrivo": "09:11",
  "compOrarioPartenza": "07:57",
  "compNumeroTreno": "REG 16310",
  "compOrientamento": [
    "--",
    "--",
    "--",
    "--",
    "--",
    "--",
    "--",
    "--",
    "--"
  ],
  "compTipologiaTreno": "regionale",
  "compClassRitardoTxt": "ritardo02_txt",
  "compClassRitardoLine": "ritardo02_line",
  "compImgRitardo2": "/vt_static/img/legenda/icone_legenda/ritardo02.png",
  "compImgRitardo": "/vt_static/img/legenda/icone_legenda/ritardo02.png",
  "compRitardo": [
    "ritardo 20 min.",
    "delay 20 min.",
    "Versp&#228;tung 20 Min.",
    "retard de 20 min.",
    "retraso de 20 min.",
    "&icirc;nt&acirc;rziere 20 min.",
    "遅延 20 分",
    "误点 20分钟",
    "опоздание на 20 минут"
  ],
  "compRitardoAndamento": [
    "con un ritardo di 20 min.",
    "20 minutes late",
    "mit einer Verz&#246;gerung von 20 Min.",
    "avec un retard de 20 min.",
    "con un retraso de 20 min.",
    "cu o &icirc;nt&acirc;rziere de 20 min.",
    "20 分の遅延",
    "误点 20分钟",
    "с опозданием в 20 минут"
  ],
  "compInStazionePartenza": [
    "",
    "",
    "",
    "",
    "",
    "",
    "",
    "",
    ""
  ],
  "compInStazioneArrivo": [
    "",
    "",
    "",
    "",
    "",
    "",
    "",
    "",
    ""
  ],
  "compOrarioEffettivoArrivo": "/vt_static/img/legenda/icone_legenda/regolare.png09:31",
  "compDurata": "1:14",
  "compImgCambiNumerazione": "&nbsp;&nbsp;",
  "dataPartenzaTreno": 1620252000000
}
